{
  "dependencies": {
    "com.unity.collab-proxy": {
      "version": "2.2.0",
      "depth": 0,
      "source": "registry",
      "dependencies": {},
      "url": "https://packages.unity.com"
    },
    "com.unity.editorcoroutines": {
      "version": "1.0.0",
      "depth": 0,
      "source": "registry",
      "dependencies": {},
      "url": "https://packages.unity.com"
    },
    "com.unity.ext.nunit": {
      "version": "1.0.6",
      "depth": 2,
      "source": "registry",
      "dependencies": {},
      "url": "https://packages.unity.com"
    },
    "com.unity.feature.development": {
      "version": "1.0.1",
      "depth": 0,
      "source": "builtin",
      "dependencies": {
        "com.unity.ide.visualstudio": "2.0.22",
        "com.unity.ide.rider": "3.0.27",
        "com.unity.ide.vscode": "1.2.5",
        "com.unity.editorcoroutines": "1.0.0",
        "com.unity.performance.profile-analyzer": "1.2.2",
        "com.unity.test-framework": "1.1.33",
        "com.unity.testtools.codecoverage": "1.2.4"
      }
    },
    "com.unity.ide.rider": {
      "version": "3.0.27",
      "depth": 1,
      "source": "registry",
      "dependencies": {
        "com.unity.ext.nunit": "1.0.6"
      },
      "url": "https://packages.unity.com"
    },
    "com.unity.ide.visualstudio": {
      "version": "2.0.22",
      "depth": 1,
      "source": "registry",
      "dependencies": {
        "com.unity.test-framework": "1.1.9"
      },
      "url": "https://packages.unity.com"
    },
    "com.unity.ide.vscode": {
      "version": "1.2.5",
      "depth": 1,
      "source": "registry",
      "dependencies": {},
      "url": "https://packages.unity.com"
    },
    "com.unity.inputsystem": {
      "version": "1.7.0",
      "depth": 1,
      "source": "registry",
      "dependencies": {
        "com.unity.modules.uielements": "1.0.0"
      },
      "url": "https://packages.unity.com"
    },
    "com.unity.performance.profile-analyzer": {
      "version": "1.2.2",
      "depth": 1,
      "source": "registry",
      "dependencies": {},
      "url": "https://packages.unity.com"
    },
    "com.unity.settings-manager": {
      "version": "2.0.1",
      "depth": 2,
      "source": "registry",
      "dependencies": {},
      "url": "https://packages.unity.com"
    },
    "com.unity.sysroot": {
      "version": "2.0.7",
      "depth": 1,
      "source": "registry",
      "dependencies": {},
      "url": "https://packages.unity.com"
    },
    "com.unity.sysroot.linux-x86_64": {
      "version": "2.0.6",
      "depth": 1,
      "source": "registry",
      "dependencies": {
        "com.unity.sysroot": "2.0.7"
      },
      "url": "https://packages.unity.com"
    },
    "com.unity.test-framework": {
      "version": "1.1.33",
      "depth": 1,
      "source": "registry",
      "dependencies": {
        "com.unity.ext.nunit": "1.0.6",
        "com.unity.modules.imgui": "1.0.0",
        "com.unity.modules.jsonserialize": "1.0.0"
      },
      "url": "https://packages.unity.com"
    },
    "com.unity.testtools.codecoverage": {
      "version": "1.2.4",
      "depth": 1,
      "source": "registry",
      "dependencies": {
        "com.unity.test-framework": "1.0.16",
        "com.unity.settings-manager": "1.0.1"
      },
      "url": "https://packages.unity.com"
    },
    "com.unity.textmeshpro": {
      "version": "3.0.6",
      "depth": 0,
      "source": "registry",
      "dependencies": {
        "com.unity.ugui": "1.0.0"
      },
      "url": "https://packages.unity.com"
    },
    "com.unity.timeline": {
      "version": "1.7.6",
      "depth": 0,
      "source": "registry",
      "dependencies": {
        "com.unity.modules.director": "1.0.0",
        "com.unity.modules.animation": "1.0.0",
        "com.unity.modules.audio": "1.0.0",
        "com.unity.modules.particlesystem": "1.0.0"
      },
      "url": "https://packages.unity.com"
    },
    "com.unity.toolchain.win-x86_64-linux-x86_64": {
      "version": "2.0.6",
      "depth": 0,
      "source": "registry",
      "dependencies": {
        "com.unity.sysroot": "2.0.7",
        "com.unity.sysroot.linux-x86_64": "2.0.6"
      },
      "url": "https://packages.unity.com"
    },
    "com.unity.ugui": {
      "version": "1.0.0",
      "depth": 0,
      "source": "builtin",
      "dependencies": {
        "com.unity.modules.ui": "1.0.0",
        "com.unity.modules.imgui": "1.0.0"
      }
    },
    "com.unity.visualscripting": {
      "version": "1.9.1",
      "depth": 0,
      "source": "registry",
      "dependencies": {
        "com.unity.ugui": "1.0.0",
        "com.unity.modules.jsonserialize": "1.0.0"
      },
      "url": "https://packages.unity.com"
    },
    "com.unity.xr.legacyinputhelpers": {
      "version": "2.1.10",
      "depth": 2,
      "source": "registry",
      "dependencies": {
        "com.unity.modules.vr": "1.0.0",
        "com.unity.modules.xr": "1.0.0"
      },
      "url": "https://packages.unity.com"
    },
    "com.unity.xr.management": {
      "version": "4.4.0",
      "depth": 1,
      "source": "registry",
      "dependencies": {
        "com.unity.modules.subsystems": "1.0.0",
        "com.unity.modules.vr": "1.0.0",
        "com.unity.modules.xr": "1.0.0",
        "com.unity.xr.legacyinputhelpers": "2.1.7"
      },
      "url": "https://packages.unity.com"
    },
    "io.extendreality.tilia.camerarigs.spatialsimulator.unity": {
      "version": "2.2.13",
      "depth": 0,
      "source": "registry",
      "dependencies": {
        "io.extendreality.zinnia.unity": "2.15.0",
        "io.extendreality.tilia.utilities.shaders.unity": "1.4.0",
        "io.extendreality.tilia.input.unityinputmanager": "2.1.12"
      },
      "url": "https://registry.npmjs.org"
    },
    "io.extendreality.tilia.camerarigs.trackedalias.unity": {
      "version": "2.5.2",
      "depth": 0,
      "source": "registry",
      "dependencies": {
        "io.extendreality.zinnia.unity": "2.15.0"
      },
      "url": "https://registry.npmjs.org"
    },
    "io.extendreality.tilia.camerarigs.unityxr": {
      "version": "2.1.11",
      "depth": 0,
      "source": "registry",
      "dependencies": {
        "io.extendreality.zinnia.unity": "2.15.0"
      },
      "url": "https://registry.npmjs.org"
    },
    "io.extendreality.tilia.camerarigs.xrpluginframework.unity": {
      "version": "2.1.11",
      "depth": 0,
      "source": "registry",
      "dependencies": {
        "io.extendreality.zinnia.unity": "2.15.0",
        "com.unity.xr.management": "4.0.1"
      },
      "url": "https://registry.npmjs.org"
    },
    "io.extendreality.tilia.developertools.unity": {
      "version": "2.0.19",
      "depth": 0,
      "source": "registry",
      "dependencies": {
        "io.extendreality.zinnia.unity": "2.15.0"
      },
      "url": "https://registry.npmjs.org"
    },
    "io.extendreality.tilia.indicators.objectpointers.unity": {
      "version": "2.2.10",
      "depth": 0,
      "source": "registry",
      "dependencies": {
        "io.extendreality.zinnia.unity": "2.15.0",
        "io.extendreality.tilia.utilities.shaders.unity": "1.4.0",
        "io.extendreality.tilia.mutators.objectfollower.unity": "2.0.19"
      },
      "url": "https://registry.npmjs.org"
    },
    "io.extendreality.tilia.indicators.spatialtargets.unity": {
      "version": "2.2.15",
      "depth": 0,
      "source": "registry",
      "dependencies": {
        "io.extendreality.zinnia.unity": "2.15.0",
        "io.extendreality.tilia.indicators.objectpointers.unity": "2.2.10"
      },
      "url": "https://registry.npmjs.org"
    },
    "io.extendreality.tilia.input.unityinputmanager": {
      "version": "2.1.12",
      "depth": 0,
      "source": "registry",
      "dependencies": {
        "io.extendreality.zinnia.unity": "2.15.0"
      },
      "url": "https://registry.npmjs.org"
    },
    "io.extendreality.tilia.input.unityinputsystem": {
      "version": "2.4.8",
      "depth": 0,
      "source": "registry",
      "dependencies": {
        "io.extendreality.zinnia.unity": "2.15.0",
        "com.unity.inputsystem": "1.5.0"
      },
      "url": "https://registry.npmjs.org"
    },
    "io.extendreality.tilia.interactions.controllables.unity": {
      "version": "2.10.21",
      "depth": 0,
      "source": "registry",
      "dependencies": {
        "io.extendreality.zinnia.unity": "2.15.0",
        "io.extendreality.tilia.interactions.interactables.unity": "2.16.6"
      },
      "url": "https://registry.npmjs.org"
    },
    "io.extendreality.tilia.interactions.interactables.unity": {
      "version": "2.16.6",
      "depth": 0,
      "source": "registry",
      "dependencies": {
        "io.extendreality.zinnia.unity": "2.15.0"
      },
      "url": "https://registry.npmjs.org"
    },
    "io.extendreality.tilia.interactions.pointerinteractors.unity": {
      "version": "2.3.14",
      "depth": 0,
      "source": "registry",
      "dependencies": {
        "io.extendreality.zinnia.unity": "2.15.0",
        "io.extendreality.tilia.utilities.shaders.unity": "1.4.0",
        "io.extendreality.tilia.indicators.objectpointers.unity": "2.2.10",
        "io.extendreality.tilia.interactions.interactables.unity": "2.16.6"
      },
      "url": "https://registry.npmjs.org"
    },
    "io.extendreality.tilia.interactions.spatialbuttons.unity": {
      "version": "2.3.22",
      "depth": 0,
      "source": "registry",
      "dependencies": {
        "io.extendreality.zinnia.unity": "2.15.0",
        "io.extendreality.tilia.utilities.shaders.unity": "1.4.0",
        "io.extendreality.tilia.indicators.spatialtargets.unity": "2.2.15",
        "com.unity.textmeshpro": "1.4.1"
      },
      "url": "https://registry.npmjs.org"
    },
    "io.extendreality.tilia.locomotors.teleporter.unity": {
      "version": "2.2.1",
      "depth": 0,
      "source": "registry",
      "dependencies": {
        "io.extendreality.zinnia.unity": "2.15.0",
        "io.extendreality.tilia.utilities.shaders.unity": "1.4.0"
      },
      "url": "https://registry.npmjs.org"
    },
    "io.extendreality.tilia.locomotors.teleporttargets.unity": {
      "version": "2.1.21",
      "depth": 0,
      "source": "registry",
      "dependencies": {
        "io.extendreality.zinnia.unity": "2.15.0",
        "io.extendreality.tilia.indicators.spatialtargets.unity": "2.2.15"
      },
      "url": "https://registry.npmjs.org"
    },
    "io.extendreality.tilia.mutators.objectfollower.unity": {
      "version": "2.0.19",
      "depth": 1,
      "source": "registry",
      "dependencies": {
        "io.extendreality.zinnia.unity": "2.15.0"
      },
      "url": "https://registry.npmjs.org"
    },
    "io.extendreality.tilia.utilities.shaders.unity": {
      "version": "1.4.0",
      "depth": 1,
      "source": "registry",
      "dependencies": {},
      "url": "https://registry.npmjs.org"
    },
    "io.extendreality.tilia.visuals.basichand.unity": {
      "version": "2.4.13",
      "depth": 0,
      "source": "registry",
      "dependencies": {
        "io.extendreality.zinnia.unity": "2.15.0",
        "io.extendreality.tilia.utilities.shaders.unity": "1.4.0",
        "io.extendreality.tilia.mutators.objectfollower.unity": "2.0.19"
      },
      "url": "https://registry.npmjs.org"
    },
    "io.extendreality.tilia.visuals.collisionfader.unity": {
      "version": "2.1.37",
      "depth": 0,
      "source": "registry",
      "dependencies": {
        "io.extendreality.zinnia.unity": "2.15.0",
        "io.extendreality.tilia.utilities.shaders.unity": "1.4.0",
        "io.extendreality.tilia.mutators.objectfollower.unity": "2.0.19"
      },
      "url": "https://registry.npmjs.org"
    },
    "io.extendreality.tilia.visuals.interactablehighlighter.unity": {
      "version": "2.1.49",
      "depth": 0,
      "source": "registry",
      "dependencies": {
        "io.extendreality.zinnia.unity": "2.15.0",
        "io.extendreality.tilia.interactions.interactables.unity": "2.16.6"
      },
      "url": "https://registry.npmjs.org"
    },
    "io.extendreality.tilia.visuals.tooltip.unity": {
      "version": "2.0.21",
      "depth": 0,
      "source": "registry",
      "dependencies": {
        "io.extendreality.zinnia.unity": "2.15.0",
        "io.extendreality.tilia.utilities.shaders.unity": "1.4.0"
      },
      "url": "https://registry.npmjs.org"
    },
    "io.extendreality.tilia.visuals.vignette.unity": {
      "version": "1.0.4",
      "depth": 0,
      "source": "registry",
      "dependencies": {
        "io.extendreality.zinnia.unity": "2.15.0",
        "io.extendreality.tilia.utilities.shaders.unity": "1.4.0"
      },
      "url": "https://registry.npmjs.org"
    },
    "io.extendreality.zinnia.unity": {
      "version": "2.15.0",
      "depth": 1,
      "source": "registry",
      "dependencies": {},
      "url": "https://registry.npmjs.org"
    },
    "com.unity.modules.ai": {
      "version": "1.0.0",
      "depth": 0,
      "source": "builtin",
      "dependencies": {}
    },
    "com.unity.modules.androidjni": {
      "version": "1.0.0",
      "depth": 0,
      "source": "builtin",
      "dependencies": {}
    },
    "com.unity.modules.animation": {
      "version": "1.0.0",
      "depth": 0,
      "source": "builtin",
      "dependencies": {}
    },
    "com.unity.modules.assetbundle": {
      "version": "1.0.0",
      "depth": 0,
      "source": "builtin",
      "dependencies": {}
    },
    "com.unity.modules.audio": {
      "version": "1.0.0",
      "depth": 0,
      "source": "builtin",
      "dependencies": {}
    },
    "com.unity.modules.cloth": {
      "version": "1.0.0",
      "depth": 0,
      "source": "builtin",
      "dependencies": {
        "com.unity.modules.physics": "1.0.0"
      }
    },
    "com.unity.modules.director": {
      "version": "1.0.0",
      "depth": 0,
      "source": "builtin",
      "dependencies": {
        "com.unity.modules.audio": "1.0.0",
        "com.unity.modules.animation": "1.0.0"
      }
    },
    "com.unity.modules.imageconversion": {
      "version": "1.0.0",
      "depth": 0,
      "source": "builtin",
      "dependencies": {}
    },
    "com.unity.modules.imgui": {
      "version": "1.0.0",
      "depth": 0,
      "source": "builtin",
      "dependencies": {}
    },
    "com.unity.modules.jsonserialize": {
      "version": "1.0.0",
      "depth": 0,
      "source": "builtin",
      "dependencies": {}
    },
    "com.unity.modules.particlesystem": {
      "version": "1.0.0",
      "depth": 0,
      "source": "builtin",
      "dependencies": {}
    },
    "com.unity.modules.physics": {
      "version": "1.0.0",
      "depth": 0,
      "source": "builtin",
      "dependencies": {}
    },
    "com.unity.modules.physics2d": {
      "version": "1.0.0",
      "depth": 0,
      "source": "builtin",
      "dependencies": {}
    },
    "com.unity.modules.screencapture": {
      "version": "1.0.0",
      "depth": 0,
      "source": "builtin",
      "dependencies": {
        "com.unity.modules.imageconversion": "1.0.0"
      }
    },
    "com.unity.modules.subsystems": {
      "version": "1.0.0",
      "depth": 1,
      "source": "builtin",
      "dependencies": {
        "com.unity.modules.jsonserialize": "1.0.0"
      }
    },
    "com.unity.modules.terrain": {
      "version": "1.0.0",
      "depth": 0,
      "source": "builtin",
      "dependencies": {}
    },
    "com.unity.modules.terrainphysics": {
      "version": "1.0.0",
      "depth": 0,
      "source": "builtin",
      "dependencies": {
        "com.unity.modules.physics": "1.0.0",
        "com.unity.modules.terrain": "1.0.0"
      }
    },
    "com.unity.modules.tilemap": {
      "version": "1.0.0",
      "depth": 0,
      "source": "builtin",
      "dependencies": {
        "com.unity.modules.physics2d": "1.0.0"
      }
    },
    "com.unity.modules.ui": {
      "version": "1.0.0",
      "depth": 0,
      "source": "builtin",
      "dependencies": {}
    },
    "com.unity.modules.uielements": {
      "version": "1.0.0",
      "depth": 0,
      "source": "builtin",
      "dependencies": {
        "com.unity.modules.ui": "1.0.0",
        "com.unity.modules.imgui": "1.0.0",
        "com.unity.modules.jsonserialize": "1.0.0"
      }
    },
    "com.unity.modules.umbra": {
      "version": "1.0.0",
      "depth": 0,
      "source": "builtin",
      "dependencies": {}
    },
    "com.unity.modules.unityanalytics": {
      "version": "1.0.0",
      "depth": 0,
      "source": "builtin",
      "dependencies": {
        "com.unity.modules.unitywebrequest": "1.0.0",
        "com.unity.modules.jsonserialize": "1.0.0"
      }
    },
    "com.unity.modules.unitywebrequest": {
      "version": "1.0.0",
      "depth": 0,
      "source": "builtin",
      "dependencies": {}
    },
    "com.unity.modules.unitywebrequestassetbundle": {
      "version": "1.0.0",
      "depth": 0,
      "source": "builtin",
      "dependencies": {
        "com.unity.modules.assetbundle": "1.0.0",
        "com.unity.modules.unitywebrequest": "1.0.0"
      }
    },
    "com.unity.modules.unitywebrequestaudio": {
      "version": "1.0.0",
      "depth": 0,
      "source": "builtin",
      "dependencies": {
        "com.unity.modules.unitywebrequest": "1.0.0",
        "com.unity.modules.audio": "1.0.0"
      }
    },
    "com.unity.modules.unitywebrequesttexture": {
      "version": "1.0.0",
      "depth": 0,
      "source": "builtin",
      "dependencies": {
        "com.unity.modules.unitywebrequest": "1.0.0",
        "com.unity.modules.imageconversion": "1.0.0"
      }
    },
    "com.unity.modules.unitywebrequestwww": {
      "version": "1.0.0",
      "depth": 0,
      "source": "builtin",
      "dependencies": {
        "com.unity.modules.unitywebrequest": "1.0.0",
        "com.unity.modules.unitywebrequestassetbundle": "1.0.0",
        "com.unity.modules.unitywebrequestaudio": "1.0.0",
        "com.unity.modules.audio": "1.0.0",
        "com.unity.modules.assetbundle": "1.0.0",
        "com.unity.modules.imageconversion": "1.0.0"
      }
    },
    "com.unity.modules.vehicles": {
      "version": "1.0.0",
      "depth": 0,
      "source": "builtin",
      "dependencies": {
        "com.unity.modules.physics": "1.0.0"
      }
    },
    "com.unity.modules.video": {
      "version": "1.0.0",
      "depth": 0,
      "source": "builtin",
      "dependencies": {
        "com.unity.modules.audio": "1.0.0",
        "com.unity.modules.ui": "1.0.0",
        "com.unity.modules.unitywebrequest": "1.0.0"
      }
    },
    "com.unity.modules.vr": {
      "version": "1.0.0",
      "depth": 0,
      "source": "builtin",
      "dependencies": {
        "com.unity.modules.jsonserialize": "1.0.0",
        "com.unity.modules.physics": "1.0.0",
        "com.unity.modules.xr": "1.0.0"
      }
    },
    "com.unity.modules.wind": {
      "version": "1.0.0",
      "depth": 0,
      "source": "builtin",
      "dependencies": {}
    },
    "com.unity.modules.xr": {
      "version": "1.0.0",
      "depth": 0,
      "source": "builtin",
      "dependencies": {
        "com.unity.modules.physics": "1.0.0",
        "com.unity.modules.jsonserialize": "1.0.0",
        "com.unity.modules.subsystems": "1.0.0"
      }
    }
  }
}
